{"foodSearchCriteria":{"generalSearchInput":"candy","pageNumber":1,"requireAllWords":false},"totalHits":10033,"currentPage":1,"totalPages":201,"foods":[{"fdcId":167975,"description":"Candies, CARAMELLO Candy Bar","dataType":"SR Legacy","ndbNumber":"19075","publishedDate":"2019-04-01","allHighlightFields":"","score":267.71112},{"fdcId":168759,"description":"Candies, MOUNDS Candy Bar","dataType":"SR Legacy","ndbNumber":"19142","publishedDate":"2019-04-01","allHighlightFields":"","score":267.71112},{"fdcId":168764,"description":"Candies, REESE'S PIECES Candy","dataType":"SR Legacy","ndbNumber":"19151","publishedDate":"2019-04-01","allHighlightFields":"","score":267.71112},{"fdcId":168770,"description":"Candies, WHATCHAMACALLIT Candy Bar","dataType":"SR Legacy","ndbNumber":"19162","publishedDate":"2019-04-01","allHighlightFields":"","score":267.71112},{"fdcId":344147,"description":"Hard candy","additionalDescriptions":"Bottle Caps; Spun Sugar; Breath mints; Stick candy; Breath Savers; Sucker; Candy Buttons; Sweet Tarts; Candy cane; Tic Tacs; Candy hearts; Tootsie Pop Drops; Candy necklace; Tootsie Roll Pop; Certs; Candy cigarettes; Charm Pop; Life Savers Holes; Christmas candy; Starlight Mint; Cinnamon Hearts; Pez; Conversation hearts; Ring Pop; Dum Dums; Cotton candy; Runts; Cough drops; Sour Patch Kids; Funs and Dips; Baby Bottle Pop; Gob Stoppers; Lemonheads; Jawbreakers; Jolly Rancher; Just Juice; Life Savers; Lollipops; Necco Wafer; Nerds; Pixy Stix; Pop Rocks; Raspberry-filled drops; Red Hots; Red Hot Dollars; Root beer barrel; Smarties; Space Dust; Blow-Pop; Spree","dataType":"Survey (FNDDS)","foodCode":"91745020","publishedDate":"2019-04-01","allHighlightFields":"<b>Includes</b>: Bottle Caps; Spun Sugar; Breath mints; Stick <em>candy</em>; Breath Savers; Sucker; <em>Candy</em> Buttons; Sweet","score":254.22075},{"fdcId":167985,"description":"Candies, 5TH AVENUE Candy Bar","dataType":"SR Legacy","ndbNumber":"19098","publishedDate":"2019-04-01","allHighlightFields":"","score":250.77795},{"fdcId":167562,"description":"Candies, ALMOND JOY Candy Bar","dataType":"SR Legacy","ndbNumber":"19065","publishedDate":"2019-04-01","allHighlightFields":"","score":250.77795},{"fdcId":169624,"description":"Candies, REESE'S NUTRAGEOUS Candy Bar","dataType":"SR Legacy","ndbNumber":"19239","publishedDate":"2019-04-01","allHighlightFields":"","score":250.77795},{"fdcId":167583,"description":"Candies, TWIZZLERS Strawberry Twists Candy","dataType":"SR Legacy","ndbNumber":"19112","publishedDate":"2019-04-01","allHighlightFields":"","score":250.77795},{"fdcId":341692,"description":"Apple, candied","additionalDescriptions":"caramel apples","dataType":"Survey (FNDDS)","foodCode":"63401060","publishedDate":"2019-04-01","allHighlightFields":"","score":244.5574},{"fdcId":167781,"description":"Candied fruit","dataType":"SR Legacy","ndbNumber":"9426","publishedDate":"2019-04-01","allHighlightFields":"","score":244.5574},{"fdcId":167972,"description":"Candies, butterscotch","dataType":"SR Legacy","ndbNumber":"19070","publishedDate":"2019-04-01","allHighlightFields":"","score":244.5574},{"fdcId":167974,"description":"Candies, caramels","dataType":"SR Legacy","ndbNumber":"19074","publishedDate":"2019-04-01","allHighlightFields":"","score":244.5574},{"fdcId":167990,"description":"Candies, hard","dataType":"SR Legacy","ndbNumber":"19107","publishedDate":"2019-04-01","allHighlightFields":"","score":244.5574},{"fdcId":167991,"description":"Candies, jellybeans","dataType":"SR Legacy","ndbNumber":"19108","publishedDate":"2019-04-01","allHighlightFields":"","score":244.5574},{"fdcId":167995,"description":"Candies, marshmallows","dataType":"SR Legacy","ndbNumber":"19116","publishedDate":"2019-04-01","allHighlightFields":"","score":244.5574},{"fdcId":170281,"description":"Candies, Tamarind","dataType":"SR Legacy","ndbNumber":"19921","publishedDate":"2019-04-01","allHighlightFields":"","score":244.5574},{"fdcId":344035,"description":"Candy, NFS","dataType":"Survey (FNDDS)","foodCode":"91700010","publishedDate":"2019-04-01","allHighlightFields":"","score":244.5574},{"fdcId":344078,"description":"Date candy","additionalDescriptions":"Fruit bar; Fruit Nut Bar","dataType":"Survey (FNDDS)","foodCode":"91708010","publishedDate":"2019-04-01","allHighlightFields":"","score":244.5574},{"fdcId":344082,"description":"Tamarind candy","dataType":"Survey (FNDDS)","foodCode":"91708070","publishedDate":"2019-04-01","allHighlightFields":"","score":244.5574},{"fdcId":344112,"description":"Marshmallow, candy-coated","additionalDescriptions":"Easter egg, candy-coated marshmallow","dataType":"Survey (FNDDS)","foodCode":"91723020","publishedDate":"2019-04-01","allHighlightFields":"<b>Includes</b>: Easter egg, <em>candy</em>-coated marshmallow","score":232.72052},{"fdcId":170678,"description":"Candies, M&M MARS Pretzel Chocolate Candies","dataType":"SR Legacy","ndbNumber":"19917","publishedDate":"2019-04-01","allHighlightFields":"","score":222.63525},{"fdcId":167564,"description":"Candies, NESTLE, BIT-O'-HONEY Candy Chews","dataType":"SR Legacy","ndbNumber":"19068","publishedDate":"2019-04-01","allHighlightFields":"","score":222.63525},{"fdcId":344148,"description":"Butterscotch hard candy","additionalDescriptions":"butterscotch disc","dataType":"Survey (FNDDS)","foodCode":"91745040","publishedDate":"2019-04-01","allHighlightFields":"","score":217.72371},{"fdcId":167973,"description":"Candies, carob, unsweetened","dataType":"SR Legacy","ndbNumber":"19071","publishedDate":"2019-04-01","allHighlightFields":"","score":217.72371},{"fdcId":167996,"description":"Candies, halavah, plain","dataType":"SR Legacy","ndbNumber":"19117","publishedDate":"2019-04-01","allHighlightFields":"","score":217.72371},{"fdcId":168801,"description":"Candies, HEATH BITES","dataType":"SR Legacy","ndbNumber":"19243","publishedDate":"2019-04-01","allHighlightFields":"","score":217.72371},{"fdcId":167587,"description":"Candies, milk chocolate","dataType":"SR Legacy","ndbNumber":"19120","publishedDate":"2019-04-01","allHighlightFields":"","score":217.72371},{"fdcId":169060,"description":"Candies, nougat, with almonds","dataType":"SR Legacy","ndbNumber":"43046","publishedDate":"2019-04-01","allHighlightFields":"","score":217.72371},{"fdcId":169585,"description":"Candies, peanut bar","dataType":"SR Legacy","ndbNumber":"19147","publishedDate":"2019-04-01","allHighlightFields":"","score":217.72371},{"fdcId":169623,"description":"Candies, REESE'S BITES","dataType":"SR Legacy","ndbNumber":"19238","publishedDate":"2019-04-01","allHighlightFields":"","score":217.72371},{"fdcId":167976,"description":"Candies, semisweet chocolate","dataType":"SR Legacy","ndbNumber":"19080","publishedDate":"2019-04-01","allHighlightFields":"","score":217.72371},{"fdcId":169588,"description":"Candies, sesame crunch","dataType":"SR Legacy","ndbNumber":"19154","publishedDate":"2019-04-01","allHighlightFields":"","score":217.72371},{"fdcId":167977,"description":"Candies, sweet chocolate","dataType":"SR Legacy","ndbNumber":"19081","publishedDate":"2019-04-01","allHighlightFields":"","score":217.72371},{"fdcId":167571,"description":"Candies, white chocolate","commonNames":"confectioner's coating","dataType":"SR Legacy","ndbNumber":"19087","publishedDate":"2019-04-01","allHighlightFields":"","score":217.72371},{"fdcId":168776,"description":"Candies, YORK BITES","dataType":"SR Legacy","ndbNumber":"19181","publishedDate":"2019-04-01","allHighlightFields":"","score":217.72371},{"fdcId":344077,"description":"Fruit peel, candied","dataType":"Survey (FNDDS)","foodCode":"91708000","publishedDate":"2019-04-01","allHighlightFields":"","score":217.72371},{"fdcId":342491,"description":"Sweet potato, candied","dataType":"Survey (FNDDS)","foodCode":"73406000","publishedDate":"2019-04-01","allHighlightFields":"","score":217.72371},{"fdcId":344073,"description":"Coconut candy, no chocolate covering","additionalDescriptions":"coconut candy, NFS; Rainbow coconut; Bon-bon","dataType":"Survey (FNDDS)","foodCode":"91706100","publishedDate":"2019-04-01","allHighlightFields":"<b>Includes</b>: coconut <em>candy</em>, NFS; Rainbow coconut; Bon-bon","score":209.3669},{"fdcId":168108,"description":"Candies, MARS SNACKFOOD US, M&M's Almond Chocolate Candies","dataType":"SR Legacy","ndbNumber":"42227","publishedDate":"2019-04-01","allHighlightFields":"","score":200.1921},{"fdcId":168814,"description":"Candies, MARS SNACKFOOD US, M&M's Crispy Chocolate Candies","dataType":"SR Legacy","ndbNumber":"19292","publishedDate":"2019-04-01","allHighlightFields":"","score":200.1921},{"fdcId":169583,"description":"Candies, MARS SNACKFOOD US, M&M's Milk Chocolate Candies","dataType":"SR Legacy","ndbNumber":"19141","publishedDate":"2019-04-01","allHighlightFields":"","score":200.1921},{"fdcId":169582,"description":"Candies, MARS SNACKFOOD US, M&M's Peanut Chocolate Candies","dataType":"SR Legacy","ndbNumber":"19140","publishedDate":"2019-04-01","allHighlightFields":"","score":200.1921},{"fdcId":168843,"description":"Candies, MARS SNACKFOOD US, SKITTLES Original Bite Size Candies","dataType":"SR Legacy","ndbNumber":"19370","publishedDate":"2019-04-01","allHighlightFields":"","score":200.1921},{"fdcId":169667,"description":"Candies, MARS SNACKFOOD US, SKITTLES Tropical Bite Size Candies","dataType":"SR Legacy","ndbNumber":"19368","publishedDate":"2019-04-01","allHighlightFields":"","score":200.1921},{"fdcId":344056,"description":"Milk chocolate candy, plain","additionalDescriptions":"chocolate candy, NFS; Easter Egg, NFS; Easter Egg, milk chocolate; Hershey Bar; Hershey Kiss or Star; Hershey Symphony Bar; Nestle Bar; Chocolate coins; Hershey's Hugs; Hershey's Nuggets; Easter bunnies; chocolate rose; Dove Milk Chocolate bar; chocolate balls; Cadbury Dairy Milk; Dove Promises","dataType":"Survey (FNDDS)","foodCode":"91705010","publishedDate":"2019-04-01","allHighlightFields":"<b>Includes</b>: chocolate <em>candy</em>, NFS; Easter Egg, NFS; Easter Egg, milk chocolate; Hershey Bar; Hershey Kiss","score":200.06076},{"fdcId":167980,"description":"Candies, confectioner's coating, butterscotch","dataType":"SR Legacy","ndbNumber":"19085","publishedDate":"2019-04-01","allHighlightFields":"","score":196.21597},{"fdcId":167569,"description":"Candies, confectioner's coating, yogurt","dataType":"SR Legacy","ndbNumber":"19079","publishedDate":"2019-04-01","allHighlightFields":"","score":196.21597},{"fdcId":167580,"description":"Candies, fudge, vanilla with nuts","dataType":"SR Legacy","ndbNumber":"19104","publishedDate":"2019-04-01","allHighlightFields":"","score":196.21597},{"fdcId":170680,"description":"Candies, HERSHEYS, PAYDAY Bar","dataType":"SR Legacy","ndbNumber":"19923","publishedDate":"2019-04-01","allHighlightFields":"","score":196.21597}]}
